Explore_bikeshare_data
…
	3945638                                                            2017-05-08 19:47:18                                                2017-05-08 19:59:01                                                 703                                                               Barrow St & Hudson St  W 20 St & 8 Ave        Subscriber                                                         Female                                                             1986                                                               NYC                                                                19                                                                 

	6208972                                                            2017-06-21 07:49:16                                                2017-06-21 07:54:46                                                 329                                                               1 Ave & E 44 St        E 53 St & 3 Ave        Subscriber                                                         Male                       1992                                                               NYC                                                                 7                                                                 

	1285652                                                            2017-02-22 18:55:24                                                2017-02-22 19:12:03                                                 998                                                               State St & Smith St    Bond St & Fulton St    Subscriber                                                         Male                       1986                                                               NYC                                                                18                                                                 

In [57]:

# CALCULATE TOTAL TRIPS BY HOUR AND USER TYPE
  hourly_trips <- ny %>%
    group_by(Hour, User.Type) %>%
    summarize(Trips = n(), .groups = 'time')
  print(hourly_trips)

# A tibble: 66 x 4
# Groups:   Hour [?]
    Hour User.Type  Trips .groups
   <int> <fct>      <int> <chr>  
 1     0 ""             2 time   
 2     0 Customer      40 time   
 3     0 Subscriber   394 time   
 4     1 Customer      24 time   
 5     1 Subscriber   207 time   
 6     2 ""             1 time   
 7     2 Customer      19 time   
 8     2 Subscriber   132 time   
 9     3 Customer       9 time   
10     3 Subscriber    51 time   
#  with 56 more rows
…
